Análisis de similitud de barrios por servicios
…
Agrupaciones de barrios (clusterización)

Por último, se va a realizar un clustering para agrupar las viviendas
por barrios, teniendo en cuenta las nuevas características añadidas.

col <- setdiff(names(barrios_info), c("distrito","barrio"))

# Se escalan todas las variables nuéricas
barrios_info[col]<- scale(barrios_info[col])
barrios_info

## # A tibble: 63 × 20
## # Groups:   distrito [18]
##    distrito barrio precio distancia_P_Ayuntami…¹ distancia_CAC distancia_Bioparc
##    <chr>    <chr>   <dbl>                  <dbl>         <dbl>             <dbl>
##  1 L'EIXAM… LA GR…   2.55                -0.587        -0.723            -0.174 
##  2 POBLATS… BENIF…   2.48                 0.347         1.10             -0.560 
##  3 POBLATS… EL PE…   1.78                 5.87          5.62              5.51  
##  4 EL PLA … MESTA…   1.60                -0.435        -0.622            -0.0680
##  5 POBLATS… PINEDO   1.60                 1.63          0.808             1.70  
##  6 POBLATS… EL SA…   1.51                 3.73          3.19              3.57  
##  7 PATRAIX  VARA …   1.47                 0.0172        0.431            -0.538 
##  8 JESUS    L'HOR…   1.43                -0.140        -0.0854           -0.251 
##  9 BENIMAC… BENIM…   1.16                -0.209        -0.0598           -0.0866
## 10 CAMINS … PENYA…   1.11                -0.0834       -1.09              0.284 
## # ℹ 53 more rows
## # ℹ abbreviated name: ¹​distancia_P_Ayuntamiento
## # ℹ 14 more variables: distancia_Estacion <dbl>, distancia_Malvarrosa <dbl>,
## #   distancia_Torres <dbl>, distancia_UV <dbl>, distancia_Puerto <dbl>,
## #   distancia_Albufera <dbl>, distancia_Viveros <dbl>, distancia_UPV <dbl>,
## #   distancia_Mestalla <dbl>, codbarrio <dbl>, coddistrito <dbl>, emt <dbl>,
## #   metrovlc <dbl>, renta_hogar <dbl>
…
# Se eliminan las variables que no son significativas según el PLS
barrios_significativas <- subset(barrios_scaled, select = -c(distancia_Puerto, distancia_Estacion, distancia_CAC, distancia_Bioparc, precio)) 

ponderado_barrio <- sweep(barrios_significativas, 2, coef, `*`)

## Warning in sweep(barrios_significativas, 2, coef, `*`): STATS is longer than
## the extent of 'dim(x)[MARGIN]'

ponderado_barrio$precio_barrio <- rowSums(ponderado_barrio)

barrios_info$precio_barrio <- (ponderado_barrio$precio_barrio + barrios_info$precio)
barrios_info

## # A tibble: 63 × 21
## # Groups:   distrito [18]
##    distrito barrio precio distancia_P_Ayuntami…¹ distancia_CAC distancia_Bioparc
##    <chr>    <chr>   <dbl>                  <dbl>         <dbl>             <dbl>
##  1 L'EIXAM… LA GR…   2.55                -0.587        -0.723            -0.174 
##  2 POBLATS… BENIF…   2.48                 0.347         1.10             -0.560 
##  3 POBLATS… EL PE…   1.78                 5.87          5.62              5.51  
##  4 EL PLA … MESTA…   1.60                -0.435        -0.622            -0.0680
##  5 POBLATS… PINEDO   1.60                 1.63          0.808             1.70  
##  6 POBLATS… EL SA…   1.51                 3.73          3.19              3.57  
##  7 PATRAIX  VARA …   1.47                 0.0172        0.431            -0.538 
##  8 JESUS    L'HOR…   1.43                -0.140        -0.0854           -0.251 
##  9 BENIMAC… BENIM…   1.16                -0.209        -0.0598           -0.0866
## 10 CAMINS … PENYA…   1.11                -0.0834       -1.09              0.284 
## # ℹ 53 more rows
## # ℹ abbreviated name: ¹​distancia_P_Ayuntamiento
## # ℹ 15 more variables: distancia_Estacion <dbl>, distancia_Malvarrosa <dbl>,
## #   distancia_Torres <dbl>, distancia_UV <dbl>, distancia_Puerto <dbl>,
## #   distancia_Albufera <dbl>, distancia_Viveros <dbl>, distancia_UPV <dbl>,
## #   distancia_Mestalla <dbl>, codbarrio <dbl>, coddistrito <dbl>, emt <dbl>,
## #   metrovlc <dbl>, renta_hogar <dbl>, precio_barrio <dbl>
…
